,T1,T2,T3,T4,T5,E,STD
R2_test,0.3009958717642064,0.4131884898992516,0.2848995191386753,0.20535324526807996,0.3173695501081213,0.30436133523566694,0.07450713683188405
R2_train,0.3242317299684274,0.3029204211865758,0.3306518636934639,0.3362192392731894,0.3214164983297564,0.3230879504902826,0.012653801307124866
RMSE_test,30.489050292886212,23.111222713456296,31.04908709543523,32.42260083239617,30.778262738836037,29.570044734601986,3.685966171133122
RMSE_train,28.973894095566013,30.644779951368502,28.78341778046668,28.736503683428715,28.865301728497236,29.200779447865425,0.8122349512694587
Base Time,-3.859671799779644,-4.204898863979109,-3.937119468149818,-3.987721476959064,-4.040074433443318,-4.005897208462191,0.1296267203631378
CC1,-0.6415129275659925,-0.7584756410663953,0.075373062290732,-1.6075550287035976,-2.0077429653241854,-0.9879827000738878,0.825715014356797
CC2,10.596663293879363,10.707092971687995,10.977391435638044,10.639942782556584,10.479247467910847,10.680067590334566,0.18575981714301773
CC3,3.4282534709462156,3.4696075160808166,3.5901568236343713,3.5750943711158523,3.657280158164252,3.5440784679883017,0.09335573948928011
CC4,-1.5628912586651196,-1.4135314334513343,-1.8918126916877862,-1.421116075082333,-0.37617041083939023,-1.3331043739451927,0.568967085578613
CC5,7.024637665947094,7.083844086295952,7.2141807007740955,6.9492754651194,6.755702420838334,7.005528067794975,0.17000860708327428
Derived_feature_0,0.6678100750728129,0.11660141317279261,0.7729822936226908,0.13488904847494337,0.008610443436575027,0.34017865475596293,0.35239516936019816
Derived_feature_1,0.19982802950983103,-0.50527479809905,1.7621736085392503,2.425590718182503,0.9775086197436544,0.9719652355752377,1.1742999007468427
Derived_feature_10,-0.22464587308931425,-0.03559424404055039,0.3384503316837335,0.9177901962152808,0.0571360071954346,0.21062728359291688,0.4444281297747064
Derived_feature_11,1.5177771217638247,3.1686445795784017,1.8165024576908826,0.9658470633486358,0.6844861003834235,1.6306514645530334,0.9682326449504278
Derived_feature_12,3.4267829304370063,1.265565780423195,1.8361586443746465,-0.3315240012690026,0.927141706325928,1.4248250120583548,1.3724835970163047
Derived_feature_13,2.921142143406237,3.4075990383660666,1.1148893261815243,2.8488304039253047,3.6084461848727045,2.7801814193503676,0.9845628160302029
Derived_feature_14,-4.4211095334651604,-0.05816635665134985,-2.220203046904524,1.1424127294063693,-1.4331129753225083,-1.3980358365874346,2.125164290346781
Derived_feature_15,-1.0511790155134806,-0.1059224169864979,-1.1682563912715855,-0.9575390004658803,-0.19789632032306237,-0.6961586289121013,0.5034579388563113
Derived_feature_16,-0.13971829551906903,-0.6021601773408183,-1.9408614901330934,-3.5665970626374497,-1.201204011958963,-1.4901082075178786,1.3426144960634825
Derived_feature_17,0.7930940021118882,-0.8179109317344321,-1.8876559172204397,-3.4543365987432995,-0.5823753172478474,-1.189836952566826,1.5854229506146995
Derived_feature_18,-2.7814526349530535,-1.781587035548516,-2.2241911392054794,0.000610666099925025,-1.4026165564617632,-1.6378473400137774,1.0502584659102623
Derived_feature_19,0.7173363122012325,0.497281897860778,-0.1677320977581977,-0.19285348194749374,0.11441716604848459,0.19368995928096072,0.4039490930536249
Derived_feature_2,1.3800428799511517,1.2767557625349586,1.3092771124086486,-0.34435791752814915,1.3686865590524118,0.9980808792838044,0.751646234787785
Derived_feature_20,-0.15108137040918407,1.8779749180982153,0.4844491693939975,0.4564650591664715,-0.23059163052065468,0.48744322914576904,0.8452565754436637
Derived_feature_21,-0.2671800752488807,1.4327362000179824,-0.8959276790840752,0.20946824859184682,0.02348370502860253,0.10051607986109516,0.8545050669273032
Derived_feature_22,0.27334694910508744,1.1607390686326873,0.12063556411141758,1.092799898030699,-0.29806353825525705,0.4698915883249269,0.6355410382981485
Derived_feature_23,-0.5323577238376714,-0.5742489325768447,-1.5754859903766933,-0.20124146169983756,0.7226909604922304,-0.4321286295997634,0.8252919598926681
Derived_feature_24,-0.15391069828604642,-0.511151181001263,-0.741702770457609,0.1555449034735208,-1.1672880618486219,-0.48370156162400396,0.5128368808241505
Derived_feature_3,-2.7415421946215153,-0.039159532149342785,0.3573631079808533,1.065795992283415,-0.32501742314751136,-0.3365120099308202,1.4422769518345357
Derived_feature_4,1.1955875538164402,2.6147630985033508,3.466464294965981,4.2841947312464965,2.210906418220858,2.7543832193506255,1.1823797463778787
Derived_feature_5,-2.1936316539793794,-0.11328125876483146,-0.5445691815596727,-1.421281189316035,-1.3326406738566265,-1.121080791495309,0.8113674799149471
Derived_feature_6,-0.46150015511988873,-2.0563514585959353,-0.8425553231876027,-0.6365712745480693,-0.9053310516171963,-0.9804618526137385,0.6264549595791601
Derived_feature_7,2.698036191000382,1.2999589936072873,1.2862457073157088,-0.07700184703406251,0.32197619194246213,1.1058430473663556,1.074578338021279
Derived_feature_8,6.634822235044319,2.6422053638334835,4.758283805308276,4.20375656227551,3.864180753922011,4.42064974407672,1.4608320729977642
Derived_feature_9,-0.4497267861250427,-0.044902178129569294,1.7369793458415916,-0.50010043552062,1.8773277228115461,0.5239155337755811,1.1856844044082053
H Local,0.8981676290640311,0.8669047926388852,0.7345791016741171,0.86819303180549,0.7800731440538738,0.8295835398472795,0.06903707090599101
Page Category,-0.10630621624821261,-0.05700579148313843,-0.000347131526957749,-0.08390183596073482,-0.1789827281362912,-0.08530874067106697,0.0656452992418395
Page Checkins,-0.24118565536838987,-0.5628515957193008,-0.47954394913695286,-0.5040441140400308,-0.5263822909656702,-0.46280152104606886,0.12761992795112334
Page Popularity,0.39933507530561213,0.19572049142268363,0.7569373612853978,-1.5421901912448288,0.1643740920349591,-0.005164634239235239,0.8910619006151774
Page talking about,-2.314354364600893,-1.7414233823021081,-2.1142486350952447,-0.828091747420117,-1.7018676852607062,-1.7399971629358137,0.570740251238327
Post Length,-0.03551538783150249,-0.029914229649006915,0.08848106575847382,0.1304584155181774,-0.05300682594815472,0.020100607569597424,0.08335774193101014
Post Share Count,2.057741120237567,2.1036212221182438,2.4083685414965945,6.4968512194251105,2.161315139723466,3.045579448600196,1.9340597074287336
a0_const,7.210844239759545,7.445093904188132,7.344401456624868,7.338067190667512,7.288596061528626,7.325400570553737,0.08562373482673657
base_weekday_0,0.7296430415585513,0.8216838214288272,0.8184876585860753,0.7840322821485325,0.873270068917457,0.8054233745278886,0.05300587063969541
base_weekday_1,1.2461907017507612,1.1420938984139655,1.198062623560799,1.1862869545316772,1.0872195329599315,1.171970742243427,0.0601451075866884
base_weekday_2,1.0693991271471641,0.8272861319284052,0.9396905724158251,0.9855176494770244,0.8808440111247422,0.9405474984186322,0.09356606565506206
base_weekday_3,1.3983737537301821,1.3667341579425412,1.2093483226184063,1.3288776393488755,1.3634903168006722,1.3333648380881356,0.07356535555194964
base_weekday_4,0.9766516848435634,0.9451353537194521,0.9529109442000439,0.9749845886127936,0.9497047137385579,0.9598774570228823,0.014823518142663972
base_weekday_5,0.9462083871897973,1.030076342653684,0.9909584463502473,1.0322723277244827,1.0518772909625314,1.0102785589761487,0.04208439814759941
base_weekday_6,0.6375647802188714,0.8640222864898449,0.8934018162935381,0.7095945390092603,0.790249321083069,0.7789665486189168,0.10637686051363619
published_weekday_0,0.6746194825842671,0.8690403522764866,0.7518661258585424,0.7438979305484914,0.8639574866854577,0.7806762755906491,0.08392658235681888
published_weekday_1,0.7338370091490198,0.8666671762100085,0.8399014822220465,0.8099132217742383,0.7920186940212383,0.8084675166753102,0.0505412233813104
published_weekday_2,0.8308985071094972,0.8175455940450005,1.0338553053331665,0.8109464084774799,0.8015648781372655,0.8589621386204819,0.09834947024907129
published_weekday_3,1.3799434571698699,1.2660773567640224,1.1535431722283145,1.282170416468649,1.3296656629712509,1.2822800131204213,0.08458614012161575
published_weekday_4,1.2700761526491202,0.9743488016364843,1.18765456347354,1.200338972532741,1.1071933293268754,1.1479223639237524,0.11295389814364486
published_weekday_5,1.2791015862805757,1.3113779666848457,1.1190664535179542,1.2486661915152506,1.2334962988709937,1.2383416993739238,0.07306216880398433
published_weekday_6,0.7917066052209527,0.8743963488855375,0.8878417252350408,0.8749461244746604,0.8488804569900585,0.85555425216125,0.03838818763655578
